{
  "schema": [
    {"name": "string", "type": "string"},
    {"name": "short", "type": "short"},
    {"name": "integer", "type": "integer"},
    {"name": "long", "type": "long"},
    {"name": "float", "type": "float"},
    {"name": "double", "type": "double"},
    {"name": "timestamp", "type": "timestamp", "pattern": "yyyyMMdd"}
  ]
}