{
    "name": "sdc_origstn",
    "items_for_ingestion": [
        {
            "source": "maprfs:///expressdelivery/staging/OPMS/sdc_origstn_2015",
            "target": "maprfs:///expressdelivery/master/OPMS/sdc_origstn",
            "pattern": ".txt$",
            "checkpoint_path": "checkpoints/checkpoint_sdc_origstn.txt"
        },
        {
            "source": "maprfs:///expressdelivery/staging/OPMS/sdc_origstn_2016",
            "target": "maprfs:///expressdelivery/master/OPMS/sdc_origstn",
            "pattern": ".txt$",
            "checkpoint_path": "/mapr/dpdhl_datalake/checkpoints/checkpoint_sdc_origstn.txt"
        }
    ]
}
