{
    "name": "evc_origstn",
    "items_for_ingestion": [
        {
            "source": "../data/playground/staging/OPMS/evc_origstn_2015",
            "target": "../data/playground/master/OPMS/evc_origstn",
            "pattern": ".txt$",
            "checkpoint_path": "checkpoints/checkpoint_evc_origstn.txt"
        },
        {
            "source": "../data/playground/staging/OPMS/evc_origstn_2016",
            "target": "../data/playground/master/OPMS/evc_origstn",
            "pattern": ".txt$",
            "checkpoint_path": "checkpoints/checkpoint_evc_origstn.txt"
        }
    ]
}
